{
    "version": "https://jsonfeed.org/version/1",
    "title": "USHARF",
    "description": "",
    "home_page_url": "https://gitlab.com/usharf/usharf.gitlab.io",
    "feed_url": "https://gitlab.com/usharf/usharf.gitlab.io/feed.json",
    "user_comment": "",
    "author": {
        "name": "Uri SHARF"
    },
    "items": [
        {
            "id": "https://gitlab.com/usharf/usharf.gitlab.io/hello-world.html",
            "url": "https://gitlab.com/usharf/usharf.gitlab.io/hello-world.html",
            "title": "Hello, World!",
            "summary": "lorem ipsum",
            "content_html": "lorem ipsum",
            "author": {
                "name": "Uri SHARF"
            },
            "tags": [
            ],
            "date_published": "2019-04-26T15:48:30+02:00",
            "date_modified": "2019-04-26T15:48:30+02:00"
        }
    ]
}
